[
  {
    "name": "monstrous",
    "display_name": "Monstrous",
    "cost": 0,
    "purchasable": false,
    "racial": "reptiloide",
    "description": "Your mutations tends to expressive themselves physically, often in horrifying ways. On the plus side you tend to remain clear headed.",
    "tags": ["mutation"]
  },
  {
    "name": "radiation-sigil",
    "display_name": "Radiation Sigil",
    "cost": 3,
    "purchasable": true,
    "description": "Ability to control the tainted energy that flows through the wastes",
    "tags": ["magic", "sigil", "radiation"]
  },
  {
    "name": "illusion-sigil",
    "display_name": "Illusion Sigil",
    "cost": 3,
    "purchasable": true,
    "description": "Bend the perceived realities",
    "tags": ["magic", "sigil"]
  },
  {
    "name": "displacement-sigil",
    "display_name": "Displacement Sigil",
    "cost": 4,
    "purchasable": true,
    "description": "eg. teleport, tiny hut",
    "tags": ["magic", "sigil"]
  },
  {
    "name": "breath-form",
    "display_name": "Breath Weapon",
    "cost": 2,
    "purchasable": true,
    "description": "You've learned how to expel arcane energies directly from you body in wide sweeping arc.",
    "tags": ["magic", "form"]
  },
  {
    "name": "root-form",
    "display_name": "Root Form Sigil",
    "cost": 2,
    "purchasable": true,
    "description": "You've learned how to focus natural energies through the earth to nearby areas.",
    "tags": ["magic", "form"]
  },
  {
    "name": "blade-form",
    "display_name": "Blade Form Sigil",
    "cost": 2,
    "purchasable": true,
    "description": "You've studied the blade, and can wield arcane energies directly into physical form.",
    "tags": ["magic", "form"]
  },
  {
    "name": "tools-of-the-ancients",
    "display_name": "Tools of the Ancients",
    "cost": 0,
    "purchasable": false,
    "racial": "west-man",
    "description": "You've grown venerating and learning the proper operation of the ancients technology.",
    "tags": []
  },
  {
    "name": "magic-aversion",
    "display_name": "Rhabdophobia",
    "cost": 0,
    "purchasable": false,
    "racial": "west-man",
    "description": "You have a deeply ingrained mistrust of the magick practiced in these people of these lands, you refuse to use it. If you wish to cast a spell, use an item of a clearly magical nature, or voluntarily allow another person cast magik on you make a resolve (2) check, if you fail you refuse to take the action or stop the other person from performing magik on you",
    "tags": []
  },
  {
    "name": "spellslinger-bundle",
    "display_name": "Spellslinger Bundle",
    "bundled": ["runemaster", "spellblasting", "divining"],
    "cost": 3,
    "purchasable": true,
    "description": "All a growing fireball throwing scholar needs",
    "tags": []
  },
  {
    "name": "runemaster",
    "display_name": "Runemaster",
    "cost": 2,
    "purchasable": true,
    "description": "Ability to discover sigils through deconstruction, etc.",
    "tags": []
  },
  {
    "name": "spellblasting",
    "display_name": "Spell Blasting",
    "cost": 2,
    "purchasable": true,
    "description": "Gain the Distant Impact and Directed Force forms.",
    "tags": []
  },
  {
    "name": "chaoscasting",
    "display_name": "Chaos Casting",
    "cost": 2,
    "purchasable": true,
    "description": "All spell casts have inherent +1 chaos channelling",
    "tags": []
  },
  {
    "name": "studycasting",
    "display_name": "Prepared Casting - Studying",
    "cost": 2,
    "purchasable": true,
    "description": "During a 10 minute rest, you study up to half of your sigils, which can be cast at +1 - your other sigils are at -1. ",
    "descriptionAlt": "Same as Fetish casting, but +1 for prepared, -1 for others, and 10 minutes to restudy?",
    "tags": []
  },
  {
    "name": "fetishcasting",
    "display_name": "Prepared Casting - Fetishes",
    "cost": 2,
    "purchasable": true,
    "description": "You can only cast using the sigils you have prepared into sequences, by constructing fetishes engraved with the sigils. You can prepare X sigils, and they are cast at +2. You may change the sigils over a long rest.",
    "tags": []
  },
  {
    "name": "weaponbonding",
    "display_name": "Weapon Bonding",
    "cost": 2,
    "purchasable": true,
    "description": "You form a special connection with your weapon. Give it a name and a backstory; it is at +1, and may grow with you. You may form a new bond with another weapon, but it will take time to become as storied.",
    "tags": []
  },
  {
    "name": "divining",
    "display_name": "Divining",
    "cost": 1,
    "purchasable": true,
    "description": "Unlocks the Divining Skill Tree",
    "tags": []
  },
  {
    "name": "magic",
    "display_name": "Magic",
    "cost": 1,
    "purchasable": true,
    "description": "Unlocks the Magic Skill Tree",
    "tags": []
  },
  {
    "name": "alchemy",
    "display_name": "Alchemical Crafting",
    "cost": 3,
    "purchasable": true,
    "description": "Mixing of 11 herbs and spices, with the right amount of glow, to produce portable wonders.",
    "tags": []
  },
  {
    "name": "dark-vision",
    "display_name": "Dark Vision",
    "cost": 0,
    "purchasable" : false,
    "description": "You can see in the dark.",
    "tags": []
  }
]